What the Package Does (One Line, Title Case) • flowcluster
…
# how many unique clusters were found?
length(unique(flows_clustered$cluster))

[1] 315

# number of flows in each cluster
flows_clustered |> 
  group_by(cluster) |> 
  summarise(n = n()) |> 
  arrange(desc(n))

# A tibble: 315 × 2
   cluster     n
     <int> <int>
 1       0  6607
 2      33   157
 3      16    61
 4      55    27
 5     262    20
 6      24    19
 7     188    17
 8     162    16
 9      30    14
10     189    13
# ℹ 305 more rows
…
